\relax 
\providecommand\hyper@newdestlabel[2]{}
\providecommand*\new@tpo@label[2]{}
\providecommand\HyperFirstAtBeginDocument{\AtBeginDocument}
\HyperFirstAtBeginDocument{\ifx\hyper@anchor\@undefined
\global\let\oldcontentsline\contentsline
\gdef\contentsline#1#2#3#4{\oldcontentsline{#1}{#2}{#3}}
\global\let\oldnewlabel\newlabel
\gdef\newlabel#1#2{\newlabelxx{#1}#2}
\gdef\newlabelxx#1#2#3#4#5#6{\oldnewlabel{#1}{{#2}{#3}}}
\AtEndDocument{\ifx\hyper@anchor\@undefined
\let\contentsline\oldcontentsline
\let\newlabel\oldnewlabel
\fi}
\fi}
\global\let\hyper@last\relax 
\gdef\HyperFirstAtBeginDocument#1{#1}
\providecommand\HyField@AuxAddToFields[1]{}
\providecommand\HyField@AuxAddToCoFields[2]{}
\providecommand\BKM@entry[2]{}
\@nameuse{bbl@beforestart}
\catcode `"\active 
\babel@aux{polish}{}
\BKM@entry{id=1,dest={73656374696F6E2E31},srcline={54}}{5770726F7761647A656E6965}
\BKM@entry{id=2,dest={73656374696F6E2E32},srcline={70}}{496D706C656D656E7461636A61}
\BKM@entry{id=3,dest={73756273656374696F6E2E322E31},srcline={73}}{53726F646F7769736B6F}
\BKM@entry{id=4,dest={73756273756273656374696F6E2E322E312E31},srcline={78}}{496E707574}
\BKM@entry{id=5,dest={73756273756273656374696F6E2E322E312E32},srcline={86}}{506172736F77616E69652077656A7363696F7765676F20706C696B75}
\@writefile{toc}{\contentsline {section}{\numberline {1}Wprowadzenie}{2}{section.1}\protected@file@percent }
\@writefile{toc}{\contentsline {section}{\numberline {2}Implementacja}{2}{section.2}\protected@file@percent }
\@writefile{toc}{\contentsline {subsection}{\numberline {2.1}Środowisko}{2}{subsection.2.1}\protected@file@percent }
\@writefile{toc}{\contentsline {subsubsection}{\numberline {2.1.1}Input}{2}{subsubsection.2.1.1}\protected@file@percent }
\BKM@entry{id=6,dest={73756273656374696F6E2E322E32},srcline={129}}{4368726F6D6F736F6D}
\@writefile{toc}{\contentsline {subsubsection}{\numberline {2.1.2}Parsowanie wejściowego pliku}{3}{subsubsection.2.1.2}\protected@file@percent }
\@writefile{lol}{\contentsline {lstlisting}{\numberline {1}CNF data format}{3}{lstlisting.1}\protected@file@percent }
\@writefile{toc}{\contentsline {subsection}{\numberline {2.2}Chromosom}{3}{subsection.2.2}\protected@file@percent }
\BKM@entry{id=7,dest={73756273656374696F6E2E322E33},srcline={138}}{46756E6B636A65206669746E657373}
\BKM@entry{id=8,dest={73756273656374696F6E2E322E34},srcline={173}}{427275746520666F726365}
\@writefile{toc}{\contentsline {subsection}{\numberline {2.3}Funkcje fitness}{4}{subsection.2.3}\protected@file@percent }
\@writefile{lol}{\contentsline {lstlisting}{\numberline {2}Funkcja fitness}{4}{lstlisting.2}\protected@file@percent }
\@writefile{toc}{\contentsline {subsection}{\numberline {2.4}Brute force}{5}{subsection.2.4}\protected@file@percent }
\@writefile{lol}{\contentsline {lstlisting}{\numberline {3}Brute force}{5}{lstlisting.3}\protected@file@percent }
\BKM@entry{id=9,dest={73656374696F6E2E33},srcline={219}}{426164616E69612069206F7074796D616C697A61636A65}
\BKM@entry{id=10,dest={73756273656374696F6E2E332E31},srcline={223}}{437A61732077796B6F6E616E6961}
\BKM@entry{id=11,dest={73756273656374696F6E2E332E32},srcline={246}}{50727A656269656769}
\BKM@entry{id=12,dest={73756273756273656374696F6E2E332E322E31},srcline={259}}{6E203D2032302C2063203D203931}
\@writefile{toc}{\contentsline {section}{\numberline {3}Badania i optymalizacje}{6}{section.3}\protected@file@percent }
\@writefile{toc}{\contentsline {subsection}{\numberline {3.1}Czas wykonania}{6}{subsection.3.1}\protected@file@percent }
\@writefile{toc}{\contentsline {subsection}{\numberline {3.2}Przebiegi}{6}{subsection.3.2}\protected@file@percent }
\@writefile{lol}{\contentsline {lstlisting}{\numberline {4}Parametry algorytmu genetycznego}{6}{lstlisting.4}\protected@file@percent }
\@writefile{toc}{\contentsline {subsubsection}{\numberline {3.2.1}n = 20, c = 91}{7}{subsubsection.3.2.1}\protected@file@percent }
\BKM@entry{id=13,dest={73756273756273656374696F6E2E332E322E32},srcline={265}}{6E203D2035302C2063203D203830}
\BKM@entry{id=14,dest={73756273756273656374696F6E2E332E322E33},srcline={269}}{6E203D2037352C2063203D20333235}
\@writefile{toc}{\contentsline {subsubsection}{\numberline {3.2.2}n = 50, c = 80}{9}{subsubsection.3.2.2}\protected@file@percent }
\BKM@entry{id=15,dest={73756273656374696F6E2E332E33},srcline={273}}{4669746E6573732077207A616C657A6E6F736369206F64206C6F736F776F736369}
\@writefile{toc}{\contentsline {subsubsection}{\numberline {3.2.3}n = 75, c = 325}{10}{subsubsection.3.2.3}\protected@file@percent }
\BKM@entry{id=16,dest={73756273756273656374696F6E2E332E332E31},srcline={304}}{6E203D2035302C2063203D203830}
\@writefile{toc}{\contentsline {subsection}{\numberline {3.3}Fitness w zależności od losowości}{11}{subsection.3.3}\protected@file@percent }
\@writefile{lol}{\contentsline {lstlisting}{\numberline {5}Wpływ randomizacji na fitness}{11}{lstlisting.5}\protected@file@percent }
\BKM@entry{id=17,dest={73756273756273656374696F6E2E332E332E32},srcline={308}}{6E203D2037352C2063203D20333235}
\@writefile{toc}{\contentsline {subsubsection}{\numberline {3.3.1}n = 50, c = 80}{12}{subsubsection.3.3.1}\protected@file@percent }
\BKM@entry{id=18,dest={73656374696F6E2E34},srcline={312}}{4B6F6E6B6C757A6A61}
\@writefile{toc}{\contentsline {subsubsection}{\numberline {3.3.2}n = 75, c = 325}{13}{subsubsection.3.3.2}\protected@file@percent }
\@writefile{toc}{\contentsline {section}{\numberline {4}Konkluzja}{14}{section.4}\protected@file@percent }
